an educator’s perspective of the tidyverse
…
start with a data frame

loans

# A tibble: 9,976 × 6
  loan_amount homeownership bankruptcy application_type annual_income interest…¹
        <int> <chr>         <chr>      <fct>                    <dbl>      <dbl>
1       28000 Mortgage      No         individual               90000      14.1 
2        5000 Rent          Yes        individual               40000      12.6 
3        2000 Rent          No         individual               40000      17.1 
4       21600 Rent          No         individual               30000       6.72
5       23000 Rent          No         joint                    35000      14.1 
6        5000 Own           No         individual               34000       6.72
# … with 9,970 more rows, and abbreviated variable name ¹​interest_rate
…
Each variable forms a column

Each observation forms a row

Each type of observational unit forms a table

Wickham, H. . (2014). Tidy Data. Journal of Statistical Software, 59(10), 1–23. doi.org/10.18637/jss.v059.i10.

task: calculate a summary statistic

Calculate the mean loan amount.

loans

# A tibble: 9,976 × 6
  loan_amount homeownership bankruptcy application_type annual_income interest…¹
        <int> <chr>         <chr>      <fct>                    <dbl>      <dbl>
1       28000 Mortgage      No         individual               90000      14.1 
2        5000 Rent          Yes        individual               40000      12.6 
3        2000 Rent          No         individual               40000      17.1 
4       21600 Rent          No         individual               30000       6.72
5       23000 Rent          No         joint                    35000      14.1 
6        5000 Own           No         individual               34000       6.72
# … with 9,970 more rows, and abbreviated variable name ¹​interest_rate
…
 Own 
    $15,665 
    1,350 

 Rent 
    $14,396 
    3,848 

break it down I

Based on the applicants’ home ownership status, compute the average loan amount and the number of applicants. Display the results in descending order of average loan amount.

loans

# A tibble: 9,976 × 6
  loan_amount homeownership bankruptcy application_type annual_income interest…¹
        <int> <chr>         <chr>      <fct>                    <dbl>      <dbl>
1       28000 Mortgage      No         individual               90000      14.1 
2        5000 Rent          Yes        individual               40000      12.6 
3        2000 Rent          No         individual               40000      17.1 
4       21600 Rent          No         individual               30000       6.72
5       23000 Rent          No         joint                    35000      14.1 
6        5000 Own           No         individual               34000       6.72
# … with 9,970 more rows, and abbreviated variable name ¹​interest_rate

break it down II

Based on the applicants’ home ownership status, compute the average loan amount and the number of applicants. Display the results in descending order of average loan amount.

[input] data frame

loans |>
  group_by(homeownership)

# A tibble: 9,976 × 6
# Groups:   homeownership [3]
  loan_amount homeownership bankruptcy application_type annual_income interest…¹
        <int> <chr>         <chr>      <fct>                    <dbl>      <dbl>
1       28000 Mortgage      No         individual               90000      14.1 
2        5000 Rent          Yes        individual               40000      12.6 
3        2000 Rent          No         individual               40000      17.1 
4       21600 Rent          No         individual               30000       6.72
5       23000 Rent          No         joint                    35000      14.1 
6        5000 Own           No         individual               34000       6.72
# … with 9,970 more rows, and abbreviated variable name ¹​interest_rate
…
