An educator’s perspective of the tidyverse - bir eğitimcinin perspektifinden tidyverse
…
    Own 
    $15,665 
    1,350 

    Rent 
    $14,396 
    3,848 

adım adım I

Başvuranların ev sahipliği durumuna göre, ortalama kredi tutarını ve başvuran sayısını hesaplayın. Sonuçları azalan ortalama kredi tutarına göre görüntüleyin.

loans

# A tibble: 9,976 × 6
  loan_amount homeownership bankruptcy application_type annual_income
        <int> <chr>         <chr>      <fct>                    <dbl>
1       28000 Mortgage      No         individual               90000
2        5000 Rent          Yes        individual               40000
3        2000 Rent          No         individual               40000
4       21600 Rent          No         individual               30000
5       23000 Rent          No         joint                    35000
6        5000 Own           No         individual               34000
# … with 9,970 more rows, and 1 more variable: interest_rate <dbl>

adım adım II

Başvuranların ev sahipliği durumuna göre, ortalama kredi tutarını ve başvuran sayısını hesaplayın. Sonuçları azalan ortalama kredi tutarına göre görüntüleyin.

[input] veri çerçevesi

loans %>%
  group_by(homeownership)

# A tibble: 9,976 × 6
# Groups:   homeownership [3]
  loan_amount homeownership bankruptcy application_type annual_income
        <int> <chr>         <chr>      <fct>                    <dbl>
1       28000 Mortgage      No         individual               90000
2        5000 Rent          Yes        individual               40000
3        2000 Rent          No         individual               40000
4       21600 Rent          No         individual               30000
5       23000 Rent          No         joint                    35000
6        5000 Own           No         individual               34000
# … with 9,970 more rows, and 1 more variable: interest_rate <dbl>
…
